<svg width="50" height="50" xmlns="http://www.w3.org/2000/svg">

 <g>
  <title>background</title>
  <rect fill="#d5a86e" id="canvas_background" height="52" width="52" y="-1" x="-1"/>
 </g>
 <g>
  <title>Layer 1</title>
  <path fill="#ffffff" stroke="null" id="svg_1" d="m30.308438,21.091272c1.387365,-0.951691 2.31135,-2.613137 2.31135,-4.505224c0,-2.950182 -2.240872,-5.349917 -4.994514,-5.349917c-0.475589,0 -0.946183,0.076088 -1.404568,0.221724c-1.017771,-1.22632 -2.496147,-2.00503 -4.144891,-2.00503c-3.059972,0 -5.549459,2.666636 -5.549459,5.944352c0,2.039507 0.965051,3.842429 2.430663,4.913007c-3.283615,0.722833 -5.760339,3.842429 -5.760339,7.570132l0,10.105398l17.75827,0l0,-2.377741l4.439568,0l0,-7.133222c0,-3.467935 -2.143756,-6.408606 -5.08608,-7.383479zm-3.392385,-8.594938c0.234187,-0.047555 0.471149,-0.071332 0.709221,-0.071332c2.142091,0 3.884622,1.867121 3.884622,4.161046s-1.74253,4.161046 -3.884622,4.161046c-0.761941,0 -1.495579,-0.237774 -2.123223,-0.680034c0.008324,-0.007133 0.014984,-0.014861 0.023308,-0.021994c0.476144,-0.406594 0.887359,-0.894625 1.218106,-1.445072c0.012764,-0.0214 0.024418,-0.043988 0.037181,-0.065388c0.093231,-0.159903 0.179802,-0.324562 0.258605,-0.49457c0.014429,-0.031505 0.028857,-0.063605 0.042731,-0.09511c0.072143,-0.161686 0.137072,-0.327534 0.195896,-0.496948c0.013319,-0.038044 0.026637,-0.076088 0.039401,-0.114726c0.053275,-0.164064 0.098225,-0.3311 0.138182,-0.501703c0.010544,-0.043988 0.022198,-0.087976 0.031632,-0.131965c0.034962,-0.167631 0.062154,-0.338234 0.083242,-0.511214c0.006104,-0.046366 0.014984,-0.091543 0.019423,-0.137909c0.022198,-0.213997 0.035517,-0.432154 0.035517,-0.653284c0,-0.235396 -0.016093,-0.466632 -0.041066,-0.694895c-0.007769,-0.071927 -0.020533,-0.142664 -0.030522,-0.214591c-0.023308,-0.160497 -0.051055,-0.318617 -0.086017,-0.474359c-0.016648,-0.074899 -0.034407,-0.149203 -0.05383,-0.222913c-0.045506,-0.172981 -0.098225,-0.3418 -0.157605,-0.508242c-0.016093,-0.044583 -0.028857,-0.090354 -0.046061,-0.134937c-0.084352,-0.220535 -0.180912,-0.433938 -0.288572,-0.640207c-0.00222,-0.003567 -0.003885,-0.007133 -0.005549,-0.0107zm-9.279806,2.900844c0,-2.622054 1.991701,-4.755481 4.439568,-4.755481c1.374601,0 2.604361,0.672901 3.419577,1.72624l0.035517,0.049338c0.027192,0.035666 0.051055,0.074304 0.077137,0.110565c0.281913,0.397677 0.497787,0.83102 0.649842,1.288141c0.010544,0.031505 0.022198,0.061821 0.031632,0.093326c0.066039,0.212213 0.115429,0.430371 0.15261,0.651501c0.007769,0.04696 0.013874,0.094515 0.020533,0.14207c0.031077,0.228858 0.05272,0.459498 0.05272,0.6943c0,0.194975 -0.013874,0.387572 -0.036071,0.578385c-0.004995,0.045177 -0.012764,0.089165 -0.018868,0.133748c-0.022753,0.156931 -0.051055,0.312078 -0.088236,0.464848c-0.007769,0.032694 -0.014984,0.065388 -0.023308,0.098082c-0.100445,0.382222 -0.243621,0.748988 -0.427863,1.091383c-0.003885,0.006539 -0.007769,0.013078 -0.011099,0.019616c-0.089346,0.164064 -0.188127,0.321589 -0.295231,0.473765c-0.009989,0.014266 -0.019978,0.029127 -0.029967,0.043394c-0.226418,0.313862 -0.490017,0.598002 -0.786358,0.845287c-0.015538,0.013078 -0.031632,0.024966 -0.04717,0.038044c-0.140956,0.114132 -0.288017,0.22113 -0.442292,0.317428c-0.017758,0.011294 -0.034962,0.023183 -0.05272,0.034477l-0.086017,0.053499c-0.624869,0.358444 -1.33742,0.563525 -2.094366,0.563525c-2.447867,0 -4.439568,-2.133428 -4.439568,-4.755481zm12.208811,21.399666l-15.538487,0l0,-8.916528c0,-3.605249 2.738658,-6.538787 6.104405,-6.538787l3.329676,0c0.829644,0 1.620997,0.179519 2.342982,0.502298l0.10655,0.051121c0.061599,0.029127 0.120978,0.062416 0.181467,0.093921c0.164819,0.08441 0.324088,0.176547 0.479473,0.275223c0.070478,0.045177 0.142066,0.089165 0.210879,0.137315c0.073808,0.051121 0.144841,0.105215 0.216429,0.159903c0.073808,0.056471 0.146506,0.114726 0.218094,0.174764c0.063819,0.053499 0.127083,0.106404 0.188682,0.162281c0.093786,0.085599 0.184242,0.174764 0.273033,0.266307c0.069923,0.071927 0.138182,0.145637 0.204775,0.22113c0.074918,0.085004 0.14928,0.170603 0.220314,0.259174c0.05272,0.066577 0.10322,0.134342 0.153165,0.202702c0.056604,0.077277 0.110989,0.155742 0.164819,0.235991c0.048835,0.072521 0.09767,0.145042 0.143731,0.219941c0.063264,0.102837 0.121533,0.209241 0.179248,0.315645c0.060489,0.111754 0.116539,0.225291 0.170923,0.340611c0.039956,0.08441 0.078802,0.169414 0.115429,0.256202c0.036071,0.085599 0.069923,0.172981 0.10211,0.260363c0.034407,0.093326 0.066039,0.187842 0.097116,0.282951c0.025528,0.079654 0.053275,0.158714 0.076028,0.239557c0.046615,0.165847 0.087127,0.334073 0.121533,0.504675c0.013319,0.065388 0.022753,0.132559 0.034407,0.198541c0.022753,0.131965 0.042176,0.265118 0.057159,0.39946c0.007214,0.06301 0.014429,0.12602 0.019423,0.189625c0.014984,0.19438 0.026637,0.390544 0.026637,0.589085l0,7.727657l0,1.18887zm4.439568,-2.377741l-3.329676,0l0,-6.538787c0,-0.282357 -0.016093,-0.560552 -0.043841,-0.835181c-0.006659,-0.065982 -0.019423,-0.130181 -0.027747,-0.195569c-0.026637,-0.211024 -0.057159,-0.420266 -0.099335,-0.625346c-0.014429,-0.068954 -0.033297,-0.136126 -0.04939,-0.204486c-0.046615,-0.19973 -0.09767,-0.397677 -0.15816,-0.590869c-0.021088,-0.067171 -0.045506,-0.133153 -0.068258,-0.19973c-0.064929,-0.190219 -0.135407,-0.376872 -0.213654,-0.559958c-0.028857,-0.066577 -0.058824,-0.131965 -0.089346,-0.197947c-0.082132,-0.177736 -0.169813,-0.351906 -0.264154,-0.521914c-0.036071,-0.064793 -0.072143,-0.128992 -0.109324,-0.193191c-0.09878,-0.166442 -0.203665,-0.327534 -0.313544,-0.485654c-0.041621,-0.059444 -0.081577,-0.120076 -0.124308,-0.178331c-0.120978,-0.16347 -0.249171,-0.319212 -0.381248,-0.471387c-0.038846,-0.044583 -0.074363,-0.090949 -0.114319,-0.134937c-0.175363,-0.192003 -0.35794,-0.376277 -0.551061,-0.548069c3.28861,0.09511 5.937367,2.991198 5.937367,6.537004l0,5.944352z"/>
 </g>
</svg>