<svg width="512" height="512" xmlns="http://www.w3.org/2000/svg">

 <g>
  <title>background</title>
  <rect fill="#d5a86e" id="canvas_background" height="514" width="514" y="-1" x="-1"/>
 </g>
 <g>
  <title>Layer 1</title>
  <path stroke="null" id="svg_2" fill="#ffffff" d="m227.147255,229.509384c-30.762582,0 -55.787698,-24.129029 -55.787698,-53.79008s25.025116,-53.750846 55.787698,-53.750846c30.762582,0 55.787698,24.129029 55.787698,53.79008s-25.025116,53.750846 -55.787698,53.750846zm0,-99.53715c-26.164471,0 -47.445992,20.519483 -47.445992,45.74707s21.281521,45.786304 47.445992,45.786304c26.164471,0 47.445992,-20.519483 47.445992,-45.74707s-21.281521,-45.786304 -47.445992,-45.786304z"/>
  <path transform="rotate(9.574222564697266 410.0999145507815,98.30712890625003) " d="m365.509307,56.33949c0,0 2.220917,0.601715 3.934448,1.311493c1.21167,0.501892 3.130371,3.826408 6.557465,5.245956c1.21167,0.501884 6.364288,2.849991 7.868927,3.934464c2.379028,1.714706 5.014801,1.949211 7.868927,2.622978c1.276398,0.301323 2.57074,0.110138 5.245972,1.311485c6.44278,2.893219 15.664063,5.79425 23.606781,14.426376c4.782166,5.197235 4.062866,10.26165 6.557434,11.803398c1.115631,0.689499 1.311493,2.622978 2.622986,3.934471c1.311493,1.311485 9.44165,5.478035 14.426392,14.426369c2.01828,3.623077 1.118347,5.472977 2.622955,6.557449c2.379028,1.714722 2.121094,5.345795 2.622986,6.557449c0.709778,1.713531 0.936554,2.900574 3.934479,6.557434c1.175873,1.434341 1.311493,1.311493 1.311493,3.934464l0,0l0,1.311493" id="svg_9" stroke-opacity="null" stroke-width="null" stroke="null" fill="#d2a876"/>
  <path stroke="null" id="svg_11" fill="#ffffff" d="m327.476148,221.640453c-26.785068,0 -48.574504,-21.186434 -48.574504,-47.230244s21.789436,-47.195789 48.574504,-47.195789c26.785077,0 48.574513,21.186434 48.574513,47.230244s-21.789436,47.195789 -48.574513,47.195789zm0,-87.398343c-22.78148,0 -41.311362,18.017086 -41.311362,40.168099s18.529882,40.202554 41.311362,40.202554c22.781489,0 41.311371,-18.017086 41.311371,-40.168099s-18.529882,-40.202554 -41.311371,-40.202554z"/>
  <path stroke="null" transform="rotate(0.6466875672340393 327.02038574219023,262.84878540039375) " id="svg_12" fill="#ffffff" d="m396.36193,307.429879c-1.633628,0 -2.975536,-1.587872 -2.975536,-3.520925c0,-43.321155 -29.784482,-78.564909 -66.395185,-78.564909c-36.610703,0 -66.395185,35.243754 -66.395185,78.564909c0,1.933053 -1.341909,3.520925 -2.975529,3.520925s-2.975536,-1.587872 -2.975536,-3.520925c0,-22.886 7.526345,-44.391246 21.207954,-60.546069s31.855688,-25.095207 51.167469,-25.095207s37.515033,8.905866 51.167469,25.095207s21.207954,37.694588 21.207954,60.546069c-0.058347,1.933053 -1.400256,3.520925 -3.033875,3.520925z"/>
  <ellipse rx="1.311489" id="svg_17" cy="378.965725" cx="209.442139" stroke-opacity="null" stroke-width="null" stroke="null" fill="#d2a876"/>
  <ellipse ry="54.426783" rx="42.623385" id="svg_18" cy="337.653829" cx="258.622968" stroke-opacity="null" stroke-width="null" stroke="null" fill="#d2a876"/>
  <ellipse ry="1.967233" id="svg_19" cy="9.78164" cx="53.374977" stroke-opacity="null" stroke-width="null" stroke="null" fill="#d2a876"/>
  <ellipse ry="27.541264" rx="30.164241" id="svg_20" cy="272.735135" cx="246.163824" stroke-opacity="null" stroke-width="null" stroke="null" fill="#d2a876"/>
  <ellipse rx="0.655744" id="svg_21" cy="402.572523" cx="47.473278" stroke-opacity="null" stroke-width="null" stroke="null" fill="#d2a876"/>
  <path d="m278.95105,243.882385c0,0 0,0 0,0c0,1.311493 1.311493,2.622971 1.311493,3.934464l1.311493,0l0,0l1.311462,1.311493" id="svg_22" stroke-opacity="null" stroke-width="null" stroke="null" fill="none"/>
  <ellipse id="svg_24" cy="434.048253" cx="334.033571" stroke-opacity="null" stroke-width="null" stroke="null" fill="#d2a876"/>
  <ellipse ry="34.754452" rx="3.278722" id="svg_28" cy="98.962875" cx="273.049344" fill-opacity="null" stroke-opacity="null" stroke-width="null" stroke="null" fill="#d2a876"/>
  <ellipse id="svg_29" cy="69.454378" cx="323.541661" fill-opacity="null" stroke-opacity="null" stroke-width="null" stroke="null" fill="#d2a876"/>
  <ellipse rx="0.655744" id="svg_31" cy="190.111344" cx="308.45954" fill-opacity="null" stroke-opacity="null" stroke-width="null" stroke="null" fill="#d2a876"/>
  <ellipse rx="0.655744" id="svg_33" cy="191.422833" cx="304.525074" fill-opacity="null" stroke-opacity="null" stroke-width="null" stroke="null" fill="#d2a876"/>
  <ellipse id="svg_34" cy="132.405838" cx="311.738262" fill-opacity="null" stroke-opacity="null" stroke-width="null" stroke="null" fill="#d2a876"/>
  <ellipse ry="1.967233" rx="107.678458" id="svg_35" cy="70.110122" cx="53.511357" fill-opacity="null" stroke-opacity="null" stroke-width="null" stroke="null" fill="#d2a876"/>
  <ellipse stroke="null" ry="10.491909" rx="14.426376" id="svg_39" cy="253.062805" cx="272.393599" stroke-opacity="null" stroke-width="null" fill="#d5a86e"/>
  <path stroke="null" id="svg_3" fill="#ffffff" d="m319.319217,327.080083c-2.151329,0 -3.918492,-1.797283 -3.918492,-3.98528c0,-49.034569 -39.223338,-88.926437 -87.436157,-88.926437c-48.21282,0 -87.436157,39.891868 -87.436157,88.926437c0,2.187997 -1.767163,3.98528 -3.918492,3.98528s-3.918492,-1.797283 -3.918492,-3.98528c0,-25.904318 9.91148,-50.245781 27.92886,-68.531182s41.950915,-28.404886 67.382698,-28.404886s49.403734,10.080413 67.382698,28.404886s27.92886,42.665936 27.92886,68.531182c-0.076833,2.187997 -1.843996,3.98528 -3.995325,3.98528z"/>
 </g>
</svg>